{
  "customers": [
    {
      "id": 23,
      "name": "Timofey Yurov",
      "surname": "fadfadsf",
      "gender": "Male",
      "personalPhoneNumber": "89117522408",
      "mobileNumber": "443443453",
      "country": "Russia",
      "city": "Санкт-Петербург",
      "address": "Санкт-Петербург"
    },
    {
      "id": 25,
      "name": "Timofey Yurov",
      "surname": "fsdg",
      "gender": "Male",
      "personalPhoneNumber": "89117522408",
      "mobileNumber": "891175224",
      "country": "tdty",
      "city": "Санкт-Петербург",
      "address": "Санкт-Петербург"
    }
  ]
}